src/pipeline_tb.vcd
$date
	Tue Jun 17 13:10:29 2025
$end
$version
	Icarus Verilog
$end
$timescale
	1ps
$end
$scope module pipeline_tb $end
$var reg 1 ! clk $end
$var reg 1 " reset $end
$scope module dut $end
$var wire 1 # clk $end
$var wire 76 $ ex_mem [75:0] $end
$var wire 108 % id_ex [107:0] $end
$var wire 32 & if_id [31:0] $end
$var wire 44 ' mem_wb [43:0] $end
$var wire 10 ( pc_count [9:0] $end
$var wire 1 ) reg_write $end
$var wire 1 * reset $end
$var wire 32 + write_data [31:0] $end
$var wire 5 , write_reg [4:0] $end
$scope module ifstage $end
$var wire 1 # clk $end
$var wire 32 - if_id_instr [31:0] $end
$var wire 10 . if_id_pc [9:0] $end
$var wire 32 / instr [31:0] $end
$var wire 10 0 pc_current [9:0] $end
$var wire 1 * reset $end
$scope module pc_inst $end
$var wire 1 # clk $end
$var wire 1 * reset $end
$var reg 10 1 pc_out [9:0] $end
$upscope $end
$scope module imem $end
$var wire 10 2 address [9:0] $end
$var wire 1 # clk $end
$var wire 32 3 datain [31:0] $end
$var wire 1 4 write $end
$var reg 32 5 data [31:0] $end
$upscope $end
$scope module if_id_reg $end
$var wire 1 # clk $end
$var wire 42 6 datain [41:0] $end
$var reg 42 7 dataout [41:0] $end
$var reg 42 8 tmp [41:0] $end
$upscope $end
$upscope $end
$scope module idstage $end
$var wire 32 9 b_val [31:0] $end
$var wire 1 # clk $end
$var wire 5 : dest_reg [4:0] $end
$var wire 108 ; id_ex [107:0] $end
$var wire 108 < id_ex_temp [107:0] $end
$var wire 16 = imm [15:0] $end
$var wire 32 > imm_extended [31:0] $end
$var wire 32 ? instruction [31:0] $end
$var wire 1 @ is_r_type $end
$var wire 6 A opcode [5:0] $end
$var wire 5 B rd [4:0] $end
$var wire 32 C reg_data1 [31:0] $end
$var wire 32 D reg_data2 [31:0] $end
$var wire 5 E rs [4:0] $end
$var wire 5 F rt [4:0] $end
$var wire 5 G write_address1 [4:0] $end
$var wire 32 H write_data1 [31:0] $end
$var wire 1 ) write_data12 $end
$scope module rf $end
$var wire 1 # clk $end
$var wire 32 I read_data1 [31:0] $end
$var wire 32 J read_data2 [31:0] $end
$var wire 5 K read_reg1 [4:0] $end
$var wire 5 L read_reg2 [4:0] $end
$var wire 1 ) reg_write $end
$var wire 1 M reset $end
$var wire 32 N write_data [31:0] $end
$var wire 5 O write_reg [4:0] $end
$var integer 32 P i [31:0] $end
$upscope $end
$scope module se $end
$var wire 16 Q a [15:0] $end
$var wire 32 R b [31:0] $end
$upscope $end
$scope module id_ex_reg $end
$var wire 1 # clk $end
$var wire 108 S datain [107:0] $end
$var reg 108 T dataout [107:0] $end
$var reg 108 U tmp [107:0] $end
$upscope $end
$upscope $end
$scope module exstage $end
$var wire 32 V alu_out [31:0] $end
$var wire 1 # clk $end
$var wire 5 W dest_reg [4:0] $end
$var wire 76 X ex_in [75:0] $end
$var wire 76 Y ex_mem [75:0] $end
$var wire 108 Z id_ex [107:0] $end
$var wire 1 [ is_r $end
$var wire 32 \ op_a [31:0] $end
$var wire 32 ] op_b [31:0] $end
$var wire 6 ^ opcode [5:0] $end
$scope module a1 $end
$var wire 32 _ a [31:0] $end
$var wire 32 ` b [31:0] $end
$var wire 1 # clk $end
$var wire 6 a opcode [5:0] $end
$var reg 32 b alu_out [31:0] $end
$upscope $end
$scope module a2 $end
$var wire 1 # clk $end
$var wire 76 c datain [75:0] $end
$var reg 76 d a [75:0] $end
$var reg 76 e dataout [75:0] $end
$upscope $end
$upscope $end
$scope module memstage $end
$var wire 32 f alu_out [31:0] $end
$var wire 1 # clk $end
$var wire 5 g dest_reg [4:0] $end
$var wire 76 h ex_mem [75:0] $end
$var wire 1 i is_load $end
$var wire 32 j mem_rdata [31:0] $end
$var wire 1 k mem_read $end
$var wire 44 l mem_wb [43:0] $end
$var wire 1 m mem_write $end
$var wire 44 n memwb_in [43:0] $end
$var wire 6 o opcode [5:0] $end
$var wire 32 p store_data [31:0] $end
$var wire 32 q wb_data [31:0] $end
$scope module dm $end
$var wire 32 r addr [31:0] $end
$var wire 1 # clk $end
$var wire 1 k mem_read $end
$var wire 1 m mem_write $end
$var wire 32 s write_data [31:0] $end
$var reg 32 t read_data [31:0] $end
$upscope $end
$scope module memwb_reg $end
$var wire 1 # clk $end
$var wire 44 u datain [43:0] $end
$var reg 44 v a [43:0] $end
$var reg 44 w dataout [43:0] $end
$upscope $end
$upscope $end
$scope module wbstage $end
$var wire 1 # clk $end
$var wire 44 x mem_wb [43:0] $end
$var wire 1 y reset $end
$var reg 1 z reg_write $end
$var reg 44 { wb_reg [43:0] $end
$var reg 32 | write_data [31:0] $end
$var reg 5 } write_reg [4:0] $end
$upscope $end
$upscope $end
$upscope $end
$enddefinitions $end
#0
$dumpvars
bx }
bx |
bx {
xz
0y
bx x
bx w
bx v
bx u
bx t
bx s
bx r
bx q
bx p
bx o
bx n
xm
bx l
xk
bx j
xi
bx h
bx g
bx f
bx e
bx d
bx c
bx b
bx a
bx `
bx _
bx ^
bx ]
bx \
x[
bx Z
bx Y
bx X
bx W
bx V
bx U
bx T
bx00000000000000000000000000000000 S
bx R
bx Q
bx P
bx O
bx N
0M
bx L
bx K
bx J
bx I
bx H
bx G
bx F
bx E
bx D
bx C
bx B
bx A
x@
bx ?
bx >
bx =
bx00000000000000000000000000000000 <
bx ;
bx :
bx 9
bx 8
bx 7
bx0000000000 6
bx 5
04
b0 3
b0 2
b0 1
b0 0
bx /
bx .
bx -
bx ,
bx +
1*
x)
bx (
bx '
bx &
bx %
bx $
0#
1"
0!
$end
#5000
b100000000001010000000001100100 5
b1000000000010100000000011001000000000000 6
b100000000001010000000001100100 /
bx0000000000 8
bx00000000000000000000000000000000 U
b0 b
bx00000000000000000000000000000000xxxxxx X
bx00000000000000000000000000000000xxxxxx c
b0 V
1!
1#
#10000
bx00000000000000000000000000 ]
bx00000000000000000000000000 `
b0 W
bx00000000000000000000000000000000000000 X
bx00000000000000000000000000000000000000 c
0[
b0 (
b0 .
bx00000000000000000000000000000000 T
bx00000000000000000000000000000000 %
bx00000000000000000000000000000000 ;
bx00000000000000000000000000000000 Z
bx0000000000 7
0!
0#
#15000
bx00000000000000000000000000000000000000 d
b1000000000010100000000011001000000000000 8
1!
1#
#20000
b1100100 9
0@
b101 :
b1000 A
b1000000000000000000000000000000000000000000000000000000000000110010000101000000000000000000000000000000000 <
b1000000000000000000000000000000000000000000000000000000000000110010000101000000000000000000000000000000000 S
b0 C
b0 I
b0 E
b0 K
b101 F
b101 L
b0 B
b1100100 >
b1100100 R
b1100100 =
b1100100 Q
b100000000001010000000001100100 &
b100000000001010000000001100100 -
b100000000001010000000001100100 ?
b0 f
b0 r
bx00000x n
bx00000x u
b0 g
b1000000000010100000000011001000000000000 7
bx00000000000000000000000000000000000000 e
bx00000000000000000000000000000000000000 $
bx00000000000000000000000000000000000000 Y
bx00000000000000000000000000000000000000 h
0!
0#
0"
0*
#25000
b1000000000000000000000000000000000000000000000000000000000000110010000101000000000000000000000000000000000 U
bx00000x v
b1 1
b1000000000010100000000011001000000000001 6
b1 0
b1 2
1!
1#
#30000
b0 ^
b0 a
b1100100 \
b1100100 _
b101000000000000000000000000000 ]
b101000000000000000000000000000 `
b10000000000000000000000000000000000000000000000000000000000000000000000000 X
b10000000000000000000000000000000000000000000000000000000000000000000000000 c
bx00000x w
bx00000x '
bx00000x l
bx00000x x
b1000000000000000000000000000000000000000000000000000000000000110010000101000000000000000000000000000000000 T
b1000000000000000000000000000000000000000000000000000000000000110010000101000000000000000000000000000000000 %
b1000000000000000000000000000000000000000000000000000000000000110010000101000000000000000000000000000000000 ;
b1000000000000000000000000000000000000000000000000000000000000110010000101000000000000000000000000000000000 Z
0!
0#
#35000
bx00000x {
b10000000000000000000000000000000000000000000000000000000000000000000000000 d
b101000000000000000000001100100 b
b10000000000000000000000000000000000000101000000000000000000001100100000000 X
b10000000000000000000000000000000000000101000000000000000000001100100000000 c
b101000000000000000000001100100 V
b1000000000010100000000011001000000000001 8
b101001010011000000100000 5
b101001010011000000100000 /
b10 1
b1010010100110000001000000000000010 6
b10 0
b10 2
1!
1#
#40000
b0 q
b1 (
b1 .
b100000000000000000000000000000 p
b100000000000000000000000000000 s
0k
0i
0m
b0 n
b0 u
b0 o
b1000000000010100000000011001000000000001 7
b10000000000000000000000000000000000000000000000000000000000000000000000000 e
b10000000000000000000000000000000000000000000000000000000000000000000000000 $
b10000000000000000000000000000000000000000000000000000000000000000000000000 Y
b10000000000000000000000000000000000000000000000000000000000000000000000000 h
0!
0#
#45000
b0 }
b0 ,
b0 G
b0 O
b10101100000001100000000000000000 5
b10101100000001100000000000000000 /
b1010010100110000001000000000000010 8
b10000000000000000000000000000000000000101000000000000000000001100100000000 d
b0 v
b11 1
b101011000000011000000000000000000000000011 6
b11 0
b11 2
1!
1#
#50000
b110 :
1@
bx 9
b101000000000000000000001100100000000 n
b101000000000000000000001100100000000 u
b101000000000000000000001100100 q
b0 A
b0xxxxxxxxxxxxxxxxxxxxxxxxxxxxxxxxxxxxxxxxxxxxxxxxxxxxxxxxxxxxxxxx00110100000000000000000000000000000000 <
b0xxxxxxxxxxxxxxxxxxxxxxxxxxxxxxxxxxxxxxxxxxxxxxxxxxxxxxxxxxxxxxxx00110100000000000000000000000000000000 S
bx C
bx I
b101 E
b101 K
b110 B
b11000000100000 >
b11000000100000 R
b11000000100000 =
b11000000100000 Q
b101000000000000000000001100100 f
b101000000000000000000001100100 r
b10 (
b10 .
b101001010011000000100000 &
b101001010011000000100000 -
b101001010011000000100000 ?
b0 w
b0 '
b0 l
b0 x
b10000000000000000000000000000000000000101000000000000000000001100100000000 e
b10000000000000000000000000000000000000101000000000000000000001100100000000 $
b10000000000000000000000000000000000000101000000000000000000001100100000000 Y
b10000000000000000000000000000000000000101000000000000000000001100100000000 h
b1010010100110000001000000000000010 7
0!
0#
#55000
b0 {
b101000000000000000000001100100000000 v
b0xxxxxxxxxxxxxxxxxxxxxxxxxxxxxxxxxxxxxxxxxxxxxxxxxxxxxxxxxxxxxxxx00110100000000000000000000000000000000 U
b101011000000011000000000000000000000000011 8
b10001100000001110000000000000000 5
b10001100000001110000000000000000 /
b100 1
b100011000000011100000000000000000000000100 6
b100 0
b100 2
1!
1#
#60000
b0 9
0@
b110 :
b101011 A
b101011000000000000000000000000000000000000000000000000000000000000000000110000000000000000000000000000000000 <
b101011000000000000000000000000000000000000000000000000000000000000000000110000000000000000000000000000000000 S
b0 C
b0 I
b0 E
b0 K
b110 F
b110 L
b0 B
b0 >
b0 R
b0 =
b0 Q
b11 (
b11 .
b10101100000001100000000000000000 &
b10101100000001100000000000000000 -
b10101100000001100000000000000000 ?
bx ^
bx a
bx \
bx _
b110100000000000000000000000000 ]
b110100000000000000000000000000 `
b0xxxxxxxxxxxxxxxxxxxxxxxxxxxxxxxx00101000000000000000000001100100000000 X
b0xxxxxxxxxxxxxxxxxxxxxxxxxxxxxxxx00101000000000000000000001100100000000 c
b101011000000011000000000000000000000000011 7
b0xxxxxxxxxxxxxxxxxxxxxxxxxxxxxxxxxxxxxxxxxxxxxxxxxxxxxxxxxxxxxxxx00110100000000000000000000000000000000 T
b0xxxxxxxxxxxxxxxxxxxxxxxxxxxxxxxxxxxxxxxxxxxxxxxxxxxxxxxxxxxxxxxx00110100000000000000000000000000000000 %
b0xxxxxxxxxxxxxxxxxxxxxxxxxxxxxxxxxxxxxxxxxxxxxxxxxxxxxxxxxxxxxxxx00110100000000000000000000000000000000 ;
b0xxxxxxxxxxxxxxxxxxxxxxxxxxxxxxxxxxxxxxxxxxxxxxxxxxxxxxxxxxxxxxxx00110100000000000000000000000000000000 Z
b101000000000000000000001100100000000 w
b101000000000000000000001100100000000 '
b101000000000000000000001100100000000 l
b101000000000000000000001100100000000 x
0!
0#
#65000
b0 |
b0 +
b0 H
b0 N
1z
1)
b101000000000000000000001100100000000 {
b0 5
b0 /
b100011000000011100000000000000000000000100 8
b101011000000000000000000000000000000000000000000000000000000000000000000110000000000000000000000000000000000 U
b0 b
b0xxxxxxxxxxxxxxxxxxxxxxxxxxxxxxxx00000000000000000000000000000000000000 X
b0xxxxxxxxxxxxxxxxxxxxxxxxxxxxxxxx00000000000000000000000000000000000000 c
b0 V
b0xxxxxxxxxxxxxxxxxxxxxxxxxxxxxxxx00101000000000000000000001100100000000 d
b101 1
b101 6
b101 0
b101 2
1!
1#
#70000
b111 :
bx q
b100011000000000000000000000000000000000000000000000000000000000000000000111000000000000000000000000000000000 <
b100011000000000000000000000000000000000000000000000000000000000000000000111000000000000000000000000000000000 S
b100011 A
b111 F
b111 L
b0xxxxxxxxxxxxxxxxxxxxxxxxxx p
b0xxxxxxxxxxxxxxxxxxxxxxxxxx s
xk
xi
xm
bx00000x n
bx00000x u
bx o
b0 ^
b0 a
b0 \
b0 _
b110000000000000000000000000000 ]
b110000000000000000000000000000 `
b1010110000000000000000000000000000000000000000000000000000000000000000000000 X
b1010110000000000000000000000000000000000000000000000000000000000000000000000 c
b100 (
b100 .
b10001100000001110000000000000000 &
b10001100000001110000000000000000 -
b10001100000001110000000000000000 ?
b0xxxxxxxxxxxxxxxxxxxxxxxxxxxxxxxx00101000000000000000000001100100000000 e
b0xxxxxxxxxxxxxxxxxxxxxxxxxxxxxxxx00101000000000000000000001100100000000 $
b0xxxxxxxxxxxxxxxxxxxxxxxxxxxxxxxx00101000000000000000000001100100000000 Y
b0xxxxxxxxxxxxxxxxxxxxxxxxxxxxxxxx00101000000000000000000001100100000000 h
b101011000000000000000000000000000000000000000000000000000000000000000000110000000000000000000000000000000000 T
b101011000000000000000000000000000000000000000000000000000000000000000000110000000000000000000000000000000000 %
b101011000000000000000000000000000000000000000000000000000000000000000000110000000000000000000000000000000000 ;
b101011000000000000000000000000000000000000000000000000000000000000000000110000000000000000000000000000000000 Z
b100011000000011100000000000000000000000100 7
0!
0#
#75000
b101000000000000000000001100100 |
b101000000000000000000001100100 +
b101000000000000000000001100100 H
b101000000000000000000001100100 N
bx00000x v
b1010110000000000000000000000000000000000000000000000000000000000000000000000 d
b110000000000000000000000000000 b
b1010110000000000000000000000000000000000110000000000000000000000000000000000 X
b1010110000000000000000000000000000000000110000000000000000000000000000000000 c
b110000000000000000000000000000 V
b100011000000000000000000000000000000000000000000000000000000000000000000111000000000000000000000000000000000 U
b101 8
bx 5
bx /
b110 1
bx0000000110 6
b110 0
b110 2
1!
1#
#80000
1@
b0 :
b100000000000000000000000000000000 <
b100000000000000000000000000000000 S
b0 A
b0 D
b0 J
b0 F
b0 L
b0 q
b101 (
b101 .
b0 &
b0 -
b0 ?
b111000000000000000000000000000 ]
b111000000000000000000000000000 `
b1000110000000000000000000000000000000000110000000000000000000000000000000000 X
b1000110000000000000000000000000000000000110000000000000000000000000000000000 c
b10101100000000000000000000000000 p
b10101100000000000000000000000000 s
0k
0i
0m
b0 n
b0 u
b0 o
b0 f
b0 r
b101 7
b100011000000000000000000000000000000000000000000000000000000000000000000111000000000000000000000000000000000 T
b100011000000000000000000000000000000000000000000000000000000000000000000111000000000000000000000000000000000 %
b100011000000000000000000000000000000000000000000000000000000000000000000111000000000000000000000000000000000 ;
b100011000000000000000000000000000000000000000000000000000000000000000000111000000000000000000000000000000000 Z
b1010110000000000000000000000000000000000000000000000000000000000000000000000 e
b1010110000000000000000000000000000000000000000000000000000000000000000000000 $
b1010110000000000000000000000000000000000000000000000000000000000000000000000 Y
b1010110000000000000000000000000000000000000000000000000000000000000000000000 h
bx00000x w
bx00000x '
bx00000x l
bx00000x x
0!
0#
#85000
bx00000x {
bx0000000110 8
b100000000000000000000000000000000 U
b111000000000000000000000000000 b
b1000110000000000000000000000000000000000111000000000000000000000000000000000 X
b1000110000000000000000000000000000000000111000000000000000000000000000000000 c
b111000000000000000000000000000 V
b1000110000000000000000000000000000000000110000000000000000000000000000000000 d
b0 v
b111 1
bx0000000111 6
b111 0
b111 2
1!
1#
#90000
x@
bx 9
bx :
b110000000000000000000000000000000000 n
b110000000000000000000000000000000000 u
b110000000000000000000000000000 q
bx A
bx00000000000000000000000000000000 <
bx00000000000000000000000000000000 S
bx C
bx I
bx E
bx K
bx D
bx J
bx F
bx L
bx B
bx >
bx R
bx =
bx Q
b10001100000000000000000000000000 p
b10001100000000000000000000000000 s
b110000000000000000000000000000 f
b110000000000000000000000000000 r
b100000000000000000000000000 ]
b100000000000000000000000000 `
b111000000000000000000000000000000000 X
b111000000000000000000000000000000000 c
b110 (
b110 .
bx &
bx -
bx ?
b0 w
b0 '
b0 l
b0 x
b1000110000000000000000000000000000000000110000000000000000000000000000000000 e
b1000110000000000000000000000000000000000110000000000000000000000000000000000 $
b1000110000000000000000000000000000000000110000000000000000000000000000000000 Y
b1000110000000000000000000000000000000000110000000000000000000000000000000000 h
b100000000000000000000000000000000 T
b100000000000000000000000000000000 %
b100000000000000000000000000000000 ;
b100000000000000000000000000000000 Z
bx0000000110 7
0!
0#
#95000
bx |
bx +
bx H
bx N
xz
x)
b0 {
b110000000000000000000000000000000000 v
b111000000000000000000000000000000000 d
b100000000000000000000000000 b
b100000000000000000000000000000000 X
b100000000000000000000000000000000 c
b100000000000000000000000000 V
bx00000000000000000000000000000000 U
bx0000000111 8
b1000 1
bx0000001000 6
b1000 0
b1000 2
1!
1#
#100000
b111000000000000000000000000000000000 n
b111000000000000000000000000000000000 u
b111000000000000000000000000000 q
b111 (
b111 .
bx ^
bx a
bx \
bx _
bx00000000000000000000000000 ]
bx00000000000000000000000000 `
bx00000100000000000000000000000000000000 X
bx00000100000000000000000000000000000000 c
b0 p
b0 s
b111000000000000000000000000000 f
b111000000000000000000000000000 r
bx0000000111 7
bx00000000000000000000000000000000 T
bx00000000000000000000000000000000 %
bx00000000000000000000000000000000 ;
bx00000000000000000000000000000000 Z
b111000000000000000000000000000000000 e
b111000000000000000000000000000000000 $
b111000000000000000000000000000000000 Y
b111000000000000000000000000000000000 h
b110000000000000000000000000000000000 w
b110000000000000000000000000000000000 '
b110000000000000000000000000000000000 l
b110000000000000000000000000000000000 x
0!
0#
#105000
b0 |
b0 +
b0 H
b0 N
1z
1)
b110000000000000000000000000000000000 {
bx0000001000 8
b0 b
bx00000000000000000000000000000000000000 X
bx00000000000000000000000000000000000000 c
b0 V
bx00000100000000000000000000000000000000 d
b111000000000000000000000000000000000 v
b1001 1
bx0000001001 6
b1001 0
b1001 2
1!
1#
#110000
bx q
bx p
bx s
xk
xi
xm
bx00000x n
bx00000x u
bx o
b100000000000000000000000000 f
b100000000000000000000000000 r
b1000 (
b1000 .
b111000000000000000000000000000000000 w
b111000000000000000000000000000000000 '
b111000000000000000000000000000000000 l
b111000000000000000000000000000000000 x
bx00000100000000000000000000000000000000 e
bx00000100000000000000000000000000000000 $
bx00000100000000000000000000000000000000 Y
bx00000100000000000000000000000000000000 h
bx0000001000 7
0!
0#
#115000
b110000000000000000000000000000 |
b110000000000000000000000000000 +
b110000000000000000000000000000 H
b110000000000000000000000000000 N
b111000000000000000000000000000000000 {
bx00000x v
bx00000000000000000000000000000000000000 d
bx0000001001 8
b1010 1
bx0000001010 6
b1010 0
b1010 2
1!
1#
#120000
b1001 (
b1001 .
b0 f
b0 r
bx0000001001 7
bx00000000000000000000000000000000000000 e
bx00000000000000000000000000000000000000 $
bx00000000000000000000000000000000000000 Y
bx00000000000000000000000000000000000000 h
bx00000x w
bx00000x '
bx00000x l
bx00000x x
0!
0#
#125000
b111000000000000000000000000000 |
b111000000000000000000000000000 +
b111000000000000000000000000000 H
b111000000000000000000000000000 N
bx00000x {
bx0000001010 8
b1011 1
bx0000001011 6
b1011 0
b1011 2
1!
1#
#130000
b1010 (
b1010 .
bx0000001010 7
0!
0#
#135000
bx |
bx +
bx H
bx N
xz
x)
bx0000001011 8
b1100 1
bx0000001100 6
b1100 0
b1100 2
1!
1#
#140000
b1011 (
b1011 .
bx0000001011 7
0!
0#
#145000
bx0000001100 8
b1101 1
bx0000001101 6
b1101 0
b1101 2
1!
1#
#150000
b1100 (
b1100 .
bx0000001100 7
0!
0#
#155000
bx0000001101 8
b1110 1
bx0000001110 6
b1110 0
b1110 2
1!
1#
#160000
b1101 (
b1101 .
bx0000001101 7
0!
0#
#165000
bx0000001110 8
b1111 1
bx0000001111 6
b1111 0
b1111 2
1!
1#
#170000
b1110 (
b1110 .
bx0000001110 7
0!
0#
#175000
bx0000001111 8
b10000 1
bx0000010000 6
b10000 0
b10000 2
1!
1#
#180000
b1111 (
b1111 .
bx0000001111 7
0!
0#
#185000
bx0000010000 8
b10001 1
bx0000010001 6
b10001 0
b10001 2
1!
1#
#190000
b10000 (
b10000 .
bx0000010000 7
0!
0#
#195000
bx0000010001 8
b10010 1
bx0000010010 6
b10010 0
b10010 2
1!
1#
#200000
b10001 (
b10001 .
bx0000010001 7
0!
0#
#205000
bx0000010010 8
b10011 1
bx0000010011 6
b10011 0
b10011 2
1!
1#
#210000
b10010 (
b10010 .
bx0000010010 7
0!
0#
#215000
bx0000010011 8
b10100 1
bx0000010100 6
b10100 0
b10100 2
1!
1#
#220000
b10011 (
b10011 .
bx0000010011 7
0!
0#
#225000
bx0000010100 8
b10101 1
bx0000010101 6
b10101 0
b10101 2
1!
1#
#230000
b10100 (
b10100 .
bx0000010100 7
0!
0#
#235000
bx0000010101 8
b10110 1
bx0000010110 6
b10110 0
b10110 2
1!
1#
#240000
b10101 (
b10101 .
bx0000010101 7
0!
0#
#245000
bx0000010110 8
b10111 1
bx0000010111 6
b10111 0
b10111 2
1!
1#
#250000
b10110 (
b10110 .
bx0000010110 7
0!
0#
#255000
bx0000010111 8
b11000 1
bx0000011000 6
b11000 0
b11000 2
1!
1#
#260000
b10111 (
b10111 .
bx0000010111 7
0!
0#
#265000
bx0000011000 8
b11001 1
bx0000011001 6
b11001 0
b11001 2
1!
1#
#270000
b11000 (
b11000 .
bx0000011000 7
0!
0#
#275000
bx0000011001 8
b11010 1
bx0000011010 6
b11010 0
b11010 2
1!
1#
#280000
b11001 (
b11001 .
bx0000011001 7
0!
0#
#285000
bx0000011010 8
b11011 1
bx0000011011 6
b11011 0
b11011 2
1!
1#
#290000
b11010 (
b11010 .
bx0000011010 7
0!
0#
#295000
bx0000011011 8
b11100 1
bx0000011100 6
b11100 0
b11100 2
1!
1#
#300000
b11011 (
b11011 .
bx0000011011 7
0!
0#
#305000
bx0000011100 8
b11101 1
bx0000011101 6
b11101 0
b11101 2
1!
1#
#310000
b11100 (
b11100 .
bx0000011100 7
0!
0#
#315000
bx0000011101 8
b11110 1
bx0000011110 6
b11110 0
b11110 2
1!
1#
#320000
b11101 (
b11101 .
bx0000011101 7
0!
0#
